5 case_when – Data Management in R
…
df %>% count(left_wing_tory, as_factor(leftrigh, levels = "both"))

# A tibble: 57 × 3
   left_wing_tory `as_factor(leftrigh, levels = "both")`     n
   <fct>          <fct>                                  <int>
 1 Left wing Tory [1] left                                   9
 2 Left wing Tory 1.2                                        6
 3 Left wing Tory 1.4                                        7
 4 Left wing Tory 1.6                                       12
 5 Left wing Tory 1.8                                       26
 6 Left wing Tory 2                                         43
 7 Left wing Tory 2.2                                       75
 8 Left wing Tory 2.4                                       82
 9 Tory           2.6                                       75
10 Tory           2.75                                       2
# ℹ 47 more rows
…
  # Now:
  data %>% select(all_of(vars))

See <https://tidyselect.r-lib.org/reference/faq-external-vector.html>.

df %>% count(welfare2, welfare2_2)

# A tibble: 52 × 3
   welfare2                                       welfare2_2     n
   <dbl+lbl>                                      <fct>      <int>
 1 -1 (NA) [skip, didn`t return SC questionnaire] <NA>         588
 2  1 [sympathetic]                               Low           12
 3  1.12                                          Low           18
 4  1.25                                          Low           14
 5  1.38                                          Low           27
 6  1.43                                          Low            1
 7  1.5                                           Low           35
 8  1.57                                          Low            1
 9  1.62                                          Low           41
10  1.71                                          Low            1
# ℹ 42 more rows
…
