3 Numeric variables – Data Management in R
…
3.3.1 Requires a named list of functions

Adds a column with the mean of welfare2 and the standard deviation.

df %>% select(welfare2) %>% 
  mutate(
    across(
      all_of("welfare2"), 
      # First part is name for stat column, second is the statistic function
      list(var_mean = mean, sd = sd), 
      .names = "{.col}_{.fn}")
    )

# A tibble: 3,224 × 3
   welfare2                welfare2_var_mean welfare2_sd
   <dbl+lbl>                           <dbl>       <dbl>
 1 2.5                                  2.16        1.79
 2 3.12                                 2.16        1.79
 3 3.12                                 2.16        1.79
 4 2.25                                 2.16        1.79
 5 3.38                                 2.16        1.79
 6 2.88                                 2.16        1.79
 7 2                                    2.16        1.79
 8 2.75                                 2.16        1.79
 9 1.25                                 2.16        1.79
10 9 (NA) [Missing values]              2.16        1.79
# ℹ 3,214 more rows
…
Rows: 3,224
Columns: 7
$ Sserial          <dbl+lbl> 310001, 310002, 310003, 310004, 310005, 310006, 3…
$ WtFactor         <dbl+lbl> 0.9119594, 0.4439626, 1.2182741, 1.5839969, 0.474…
$ welfare2         <dbl+lbl>  2.500000,  3.125000,  3.125000,  2.250000,  3.37…
$ libauth          <dbl+lbl>  3.500000,  3.833333,  4.166667,  2.166667,  4.66…
$ WtFactor_rounded <dbl> 1, 0, 1, 2, 0, 1, 1, 1, 1, 1, 1, 2, 1, 1, 1, 1, 0, 1,…
$ welfare2_rounded <dbl> 2, 3, 3, 2, 3, 3, 2, 3, 1, 9, 3, 2, 9, 2, 3, 3, 4, 3,…
$ libauth_rounded  <dbl> 4, 4, 4, 2, 5, 4, 2, 3, 2, 4, 4, 2, 9, 2, 3, 4, 4, 3,…

3.4.2 Selecting based on location

df %>% mutate(across(2, round))

# A tibble: 3,224 × 31
   Sserial   WtFactor RSex       RAgeCat   eq_inc_quintiles          RClassGp   
   <dbl+lbl>    <dbl> <dbl+lbl>  <dbl+lbl> <dbl+lbl>                 <dbl+lbl>  
 1 310001           1 2 [Female] 6 [60-64] -1 (NA) [Item not applic… 1 [Manager…
 2 310002           0 2 [Female] 3 [35-44]  5 [Highest quintile - M… 1 [Manager…
 3 310003           1 2 [Female] 4 [45-54] -1 (NA) [Item not applic… 1 [Manager…
 4 310004           2 1 [Male]   2 [25-34]  4 [4th quintile - More … 1 [Manager…
 5 310005           0 1 [Male]   6 [60-64] -1 (NA) [Item not applic… 5 [Semi-ro…
 6 310006           1 1 [Male]   4 [45-54]  1 [Lowest quintile - Up… 3 [Employe…
 7 310007           1 1 [Male]   2 [25-34]  5 [Highest quintile - M… 1 [Manager…
 8 310008           1 2 [Female] 4 [45-54] -1 (NA) [Item not applic… 1 [Manager…
 9 310009           1 1 [Male]   4 [45-54] -1 (NA) [Item not applic… 1 [Manager…
10 310010           1 1 [Male]   1 [18-24] -1 (NA) [Item not applic… 5 [Semi-ro…
# ℹ 3,214 more rows
# ℹ 25 more variables: HEdQual3 <dbl+lbl>, Married <dbl+lbl>,
#   ChildHh <dbl+lbl>, skipmeal <dbl+lbl>, paptype <dbl+lbl>, SMNews <dbl+lbl>,
#   PartyId2 <dbl+lbl>, Politics <dbl+lbl>, SocTrust <dbl+lbl>,
#   Spend1 <dbl+lbl>, Dole <dbl+lbl>, TaxSpend <dbl+lbl>, MuchPov <dbl+lbl>,
#   Poverty1 <dbl+lbl>, Poverty2 <dbl+lbl>, NatFrEst <dbl+lbl>,
#   incdiffs <dbl+lbl>, welfare2 <dbl+lbl>, leftrigh <dbl+lbl>, …

3.4.3 Mean across multiple variables

Note variables calculated column-wise.

DOES NOT WORK - this takes the average only of the first variable

df <- df %>% mutate(av_ati = mean(libauth, leftrigh, na.rm = T))
df %>% count(libauth, leftrigh, av_ati)

# A tibble: 398 × 4
   libauth                                        leftrigh          av_ati     n
   <dbl+lbl>                                      <dbl+lbl>          <dbl> <int>
 1 -1 (NA) [skip, didn`t return SC questionnaire] -1 (NA) [skip, d…   2.80   588
 2  1 [libertarian]                                1 [left]           2.80     1
 3  1 [libertarian]                                1.6                2.80     1
 4  1 [libertarian]                                5 [right]          2.80     1
 5  1.17                                           1.4                2.80     1
 6  1.17                                           1.8                2.80     2
 7  1.33                                           1 [left]           2.80     1
 8  1.33                                           3.2                2.80     1
 9  1.5                                            1 [left]           2.80     1
10  1.5                                            1.4                2.80     2
# ℹ 388 more rows
…
Warning: There were 3224 warnings in `mutate()`.
The first warning was:
ℹ In argument: `av_ati2 = mean(c_across(all_of(c("libauth", "leftrigh"))),
  na.rm = T)`.
ℹ In row 1.
Caused by warning:
! `libauth` and `leftrigh` have conflicting value labels.
ℹ Labels for these values will be taken from `libauth`.
✖ Values: 1 and 5
ℹ Run `dplyr::last_dplyr_warnings()` to see the 3223 remaining warnings.

# A tibble: 398 × 4
# Rowwise: 
   libauth                                        leftrigh         av_ati2     n
   <dbl+lbl>                                      <dbl+lbl>          <dbl> <int>
 1 -1 (NA) [skip, didn`t return SC questionnaire] -1 (NA) [skip, …   -1      588
 2  1 [libertarian]                                1 [left]           1        1
 3  1 [libertarian]                                1.6                1.3      1
 4  1 [libertarian]                                5 [right]          3        1
 5  1.17                                           1.4                1.28     1
 6  1.17                                           1.8                1.48     2
 7  1.33                                           1 [left]           1.17     1
 8  1.33                                           3.2                2.27     1
 9  1.5                                            1 [left]           1.25     1
10  1.5                                            1.4                1.45     2
# ℹ 388 more rows
…
