10 labelled – Data Management in R
…
# A tibble: 3 × 2
  `to_factor(skipmeal2)`          n
  <fct>                       <int>
1 Less often than once a week  1570
2 Once a week or more            87
3 <NA>                         1567

10.13.2 Edit labels

This code edits the labels on the libertarian-authoritatian scale, then drops user missing values.

df %>% count(libauth)

# A tibble: 33 × 2
   libauth                                            n
   <dbl+lbl>                                      <int>
 1 -1 (NA) [skip, didn`t return SC questionnaire]   588
 2  1 [libertarian]                                   3
 3  1.17                                              3
 4  1.33                                              2
 5  1.5                                              11
 6  1.67                                             19
 7  1.83                                             28
 8  2                                                33
 9  2.17                                             41
10  2.33                                             62
# ℹ 23 more rows
…
